{
  "pointsAccounts" : [
    {
      "pointsEntries" : [
        {
          "id" : 21904026,
          "categoryName" : "Get Active",
          "typeName" : "Steps",
          "metadatas" : [
            {
              "typeKey" : 3,
              "typeName" : "Manufacturer",
              "value" : "jawbone_up",
              "typeCode" : "Manufacturer"
            },
            {
              "typeKey" : 52,
              "typeName" : "Total Steps",
              "value" : "15200",
              "typeCode" : "Total Steps"
            }
          ],
          "typeCode" : "Steps",
          "reasons" : [
            {
              "categoryCode" : "Conditions",
              "categoryKey" : 1,
              "reasonKey" : 200,
              "reasonName" : "You earned the maximum points available for this activity",
              "reasonCode" : "Maximum points",
              "categoryName" : "Conditions"
            }
          ],
          "potentialValue" : 100,
          "eventId" : 26272857,
          "prelimitValue" : 100,
          "categoryCode" : "GetActive",
          "goalPointsTrackers" : [
            {
              "pointsContributing" : 100,
              "goalCode" : "ActiveRewards",
              "goalKey" : 1,
              "goalName" : "Active Rewards Goal"
            }
          ],
          "earnedValue" : 100,
          "categoryKey" : 8,
          "effectiveDate" : "2017-10-26T06:45:40.000000000+02:00[+02:00]",
          "typeKey" : 10
        },
        {
          "id" : 21993349,
          "categoryName" : "Get Active",
          "typeName" : "Steps",
          "metadatas" : [
            {
              "typeKey" : 3,
              "typeName" : "Manufacturer",
              "value" : "jawbone_up",
              "typeCode" : "Manufacturer"
            },
            {
              "typeKey" : 52,
              "typeName" : "Total Steps",
              "value" : "15200",
              "typeCode" : "Total Steps"
            }
          ],
          "typeCode" : "Steps",
          "reasons" : [
            {
              "categoryCode" : "Conditions",
              "categoryKey" : 1,
              "reasonKey" : 200,
              "reasonName" : "You earned the maximum points available for this activity",
              "reasonCode" : "Maximum points",
              "categoryName" : "Conditions"
            }
          ],
          "potentialValue" : 100,
          "eventId" : 26365202,
          "prelimitValue" : 100,
          "categoryCode" : "GetActive",
          "goalPointsTrackers" : [
            {
              "pointsContributing" : 100,
              "goalCode" : "ActiveRewards",
              "goalKey" : 1,
              "goalName" : "Active Rewards Goal"
            }
          ],
          "earnedValue" : 100,
          "categoryKey" : 8,
          "effectiveDate" : "2017-10-29T05:00:40.000000000+02:00[+02:00]",
          "typeKey" : 10
        },
        {
          "id" : 21712986,
          "categoryName" : "Get Active",
          "typeName" : "Steps",
          "metadatas" : [
            {
              "typeKey" : 3,
              "typeName" : "Manufacturer",
              "value" : "jawbone_up",
              "typeCode" : "Manufacturer"
            },
            {
              "typeKey" : 1,
              "typeName" : "DeviceDataCategory",
              "value" : "Fitness",
              "typeCode" : "DeviceDataCategory"
            },
            {
              "typeKey" : 5,
              "typeName" : "StartTime",
              "value" : "2017-10-23T13:45:40+02:00",
              "typeCode" : "StartTime"
            },
            {
              "typeKey" : 6,
              "typeName" : "EndTime",
              "value" : "2017-10-23T14:15:40+02:00",
              "typeCode" : "EndTime"
            },
            {
              "typeKey" : 7,
              "typeName" : "Integrity",
              "value" : "VERIFIED",
              "typeCode" : "Integrity"
            },
            {
              "typeKey" : 52,
              "typeName" : "Total Steps",
              "value" : "15200",
              "typeCode" : "Total Steps"
            },
            {
              "typeKey" : 53,
              "typeName" : "FloorsAscended",
              "value" : "5.0",
              "typeCode" : "FloorsAscended"
            },
            {
              "typeKey" : 55,
              "typeName" : "Distance",
              "value" : "3934.56",
              "typeCode" : "Distance"
            },
            {
              "typeKey" : 92,
              "typeName" : "TotEnergyExpenditure",
              "value" : "1840.0",
              "typeCode" : "TotEnergyExpenditure"
            },
            {
              "typeKey" : 192,
              "typeName" : "ReadingType",
              "value" : "walk",
              "typeCode" : "ReadingType"
            }
          ],
          "typeCode" : "Steps",
          "reasons" : [
            {
              "categoryCode" : "Conditions",
              "categoryKey" : 1,
              "reasonKey" : 200,
              "reasonName" : "You earned the maximum points available for this activity",
              "reasonCode" : "Maximum points",
              "categoryName" : "Conditions"
            }
          ],
          "potentialValue" : 100,
          "eventId" : 26101770,
          "prelimitValue" : 100,
          "categoryCode" : "GetActive",
          "goalPointsTrackers" : [
            {
              "pointsContributing" : 100,
              "goalCode" : "ActiveRewards",
              "goalKey" : 1,
              "goalName" : "Active Rewards Goal"
            }
          ],
          "earnedValue" : 100,
          "categoryKey" : 8,
          "effectiveDate" : "2017-10-23T13:45:40.000000000+02:00[+02:00]",
          "typeKey" : 10
        },
        {
          "id" : 21836028,
          "categoryName" : "Get Active",
          "metadatas" : [
            {
              "typeKey" : 1,
              "typeName" : "DeviceDataCategory",
              "value" : "Fitness",
              "typeCode" : "DeviceDataCategory"
            },
            {
              "typeKey" : 3,
              "typeName" : "Manufacturer",
              "value" : "jawbone_up",
              "typeCode" : "Manufacturer"
            },
            {
              "typeKey" : 5,
              "typeName" : "StartTime",
              "value" : "2017-10-25T06:45:40+02:00",
              "typeCode" : "StartTime"
            },
            {
              "typeKey" : 6,
              "typeName" : "EndTime",
              "value" : "2017-10-25T07:30:40+02:00",
              "typeCode" : "EndTime"
            },
            {
              "typeKey" : 7,
              "typeName" : "Integrity",
              "value" : "VERIFIED",
              "typeCode" : "Integrity"
            },
            {
              "typeKey" : 52,
              "typeName" : "Total Steps",
              "value" : "15200",
              "typeCode" : "Total Steps"
            },
            {
              "typeKey" : 53,
              "typeName" : "FloorsAscended",
              "value" : "5.0",
              "typeCode" : "FloorsAscended"
            },
            {
              "typeKey" : 55,
              "typeName" : "Distance",
              "value" : "3934.56",
              "typeCode" : "Distance"
            },
            {
              "typeKey" : 92,
              "typeName" : "TotEnergyExpenditure",
              "value" : "1840.0",
              "typeCode" : "TotEnergyExpenditure"
            },
            {
              "typeKey" : 192,
              "typeName" : "ReadingType",
              "value" : "walk",
              "typeCode" : "ReadingType"
            }
          ],
          "typeCode" : "Steps",
          "reasons" : [
            {
              "categoryCode" : "Conditions",
              "categoryKey" : 1,
              "reasonKey" : 200,
              "reasonName" : "You earned the maximum points available for this activity",
              "reasonCode" : "Maximum points",
              "categoryName" : "Conditions"
            }
          ],
          "potentialValue" : 100,
          "eventId" : 26225569,
          "prelimitValue" : 100,
          "categoryCode" : "GetActive",
          "earnedValue" : 100,
          "effectiveDate" : "2017-10-25T06:45:40.000000000+02:00[+02:00]",
          "categoryKey" : 8,
          "typeKey" : 10,
          "typeName" : "Steps"
        },
        {
          "id" : 21904040,
          "categoryName" : "Get Active",
          "typeName" : "Steps",
          "metadatas" : [
            {
              "typeKey" : 3,
              "typeName" : "Manufacturer",
              "value" : "jawbone_up",
              "typeCode" : "Manufacturer"
            },
            {
              "typeKey" : 52,
              "typeName" : "Total Steps",
              "value" : "15200",
              "typeCode" : "Total Steps"
            }
          ],
          "typeCode" : "Steps",
          "reasons" : [
            {
              "categoryCode" : "Conditions",
              "categoryKey" : 1,
              "reasonKey" : 211,
              "reasonName" : "Higher points have already been awarded for an activity in this group",
              "reasonCode" : "HghrPtsAwardedGrped",
              "categoryName" : "Conditions"
            }
          ],
          "potentialValue" : 100,
          "eventId" : 26274025,
          "prelimitValue" : 0,
          "categoryCode" : "GetActive",
          "goalPointsTrackers" : [
            {
              "pointsContributing" : 100,
              "goalCode" : "ActiveRewards",
              "goalKey" : 1,
              "goalName" : "Active Rewards Goal"
            }
          ],
          "earnedValue" : 0,
          "categoryKey" : 8,
          "effectiveDate" : "2017-10-26T07:00:40.000000000+02:00[+02:00]",
          "typeKey" : 10
        },
        {
          "id" : 21776536,
          "categoryName" : "Get Active",
          "typeName" : "Steps",
          "metadatas" : [
            {
              "typeKey" : 1,
              "typeName" : "DeviceDataCategory",
              "value" : "Fitness",
              "typeCode" : "DeviceDataCategory"
            },
            {
              "typeKey" : 3,
              "typeName" : "Manufacturer",
              "value" : "jawbone_up",
              "typeCode" : "Manufacturer"
            },
            {
              "typeKey" : 5,
              "typeName" : "StartTime",
              "value" : "2017-10-24T06:45:40+02:00",
              "typeCode" : "StartTime"
            },
            {
              "typeKey" : 6,
              "typeName" : "EndTime",
              "value" : "2017-10-24T07:30:40+02:00",
              "typeCode" : "EndTime"
            },
            {
              "typeKey" : 7,
              "typeName" : "Integrity",
              "value" : "VERIFIED",
              "typeCode" : "Integrity"
            },
            {
              "typeKey" : 52,
              "typeName" : "Total Steps",
              "value" : "15200",
              "typeCode" : "Total Steps"
            },
            {
              "typeKey" : 53,
              "typeName" : "FloorsAscended",
              "value" : "5.0",
              "typeCode" : "FloorsAscended"
            },
            {
              "typeKey" : 55,
              "typeName" : "Distance",
              "value" : "3934.56",
              "typeCode" : "Distance"
            },
            {
              "typeKey" : 92,
              "typeName" : "TotEnergyExpenditure",
              "value" : "1840.0",
              "typeCode" : "TotEnergyExpenditure"
            },
            {
              "typeKey" : 192,
              "typeName" : "ReadingType",
              "value" : "walk",
              "typeCode" : "ReadingType"
            }
          ],
          "typeCode" : "Steps",
          "reasons" : [
            {
              "categoryCode" : "Conditions",
              "categoryKey" : 1,
              "reasonKey" : 200,
              "reasonName" : "You earned the maximum points available for this activity",
              "reasonCode" : "Maximum points",
              "categoryName" : "Conditions"
            }
          ],
          "potentialValue" : 100,
          "eventId" : 26163281,
          "prelimitValue" : 100,
          "categoryCode" : "GetActive",
          "goalPointsTrackers" : [
            {
              "pointsContributing" : 100,
              "goalCode" : "ActiveRewards",
              "goalKey" : 1,
              "goalName" : "Active Rewards Goal"
            }
          ],
          "earnedValue" : 100,
          "categoryKey" : 8,
          "effectiveDate" : "2017-10-24T06:45:40.000000000+02:00[+02:00]",
          "typeKey" : 10
        },
        {
          "id" : 22039039,
          "categoryName" : "Get Active",
          "typeName" : "Steps",
          "metadatas" : [
            {
              "typeKey" : 3,
              "typeName" : "Manufacturer",
              "value" : "jawbone_up",
              "typeCode" : "Manufacturer"
            },
            {
              "typeKey" : 52,
              "typeName" : "Total Steps",
              "value" : "15200",
              "typeCode" : "Total Steps"
            }
          ],
          "typeCode" : "Steps",
          "reasons" : [
            {
              "categoryCode" : "Conditions",
              "categoryKey" : 1,
              "reasonKey" : 200,
              "reasonName" : "You earned the maximum points available for this activity",
              "reasonCode" : "Maximum points",
              "categoryName" : "Conditions"
            }
          ],
          "potentialValue" : 100,
          "eventId" : 26416639,
          "prelimitValue" : 100,
          "categoryCode" : "GetActive",
          "goalPointsTrackers" : [
            {
              "pointsContributing" : 100,
              "goalCode" : "ActiveRewards",
              "goalKey" : 1,
              "goalName" : "Active Rewards Goal"
            }
          ],
          "earnedValue" : 100,
          "categoryKey" : 8,
          "effectiveDate" : "2017-10-30T05:00:40.000000000+02:00[+02:00]",
          "typeKey" : 10
        },
        {
          "id" : 11904026,
          "categoryName" : "Get Active",
          "typeName" : "Steps",
          "metadatas" : [
            {
              "typeKey" : 3,
              "typeName" : "Manufacturer",
              "value" : "jawbone_up",
              "typeCode" : "Manufacturer"
            },
            {
              "typeKey" : 52,
              "typeName" : "Total Steps",
              "value" : "15200",
              "typeCode" : "Total Steps"
            }
          ],
          "typeCode" : "Steps",
          "reasons" : [
            {
              "categoryCode" : "Conditions",
              "categoryKey" : 1,
              "reasonKey" : 200,
              "reasonName" : "You earned the maximum points available for this activity",
              "reasonCode" : "Maximum points",
              "categoryName" : "Conditions"
            }
          ],
          "potentialValue" : 100,
          "eventId" : 16272857,
          "prelimitValue" : 100,
          "categoryCode" : "GetActive",
          "goalPointsTrackers" : [
            {
              "pointsContributing" : 100,
              "goalCode" : "ActiveRewards",
              "goalKey" : 1,
              "goalName" : "Active Rewards Goal"
            }
          ],
          "earnedValue" : 100,
          "categoryKey" : 8,
          "effectiveDate" : "2017-08-26T06:45:40.000000000+02:00[+02:00]",
          "typeKey" : 10
        },
        {
          "id" : 11993349,
          "categoryName" : "Get Active",
          "typeName" : "Steps",
          "metadatas" : [
            {
              "typeKey" : 3,
              "typeName" : "Manufacturer",
              "value" : "jawbone_up",
              "typeCode" : "Manufacturer"
            },
            {
              "typeKey" : 52,
              "typeName" : "Total Steps",
              "value" : "15200",
              "typeCode" : "Total Steps"
            }
          ],
          "typeCode" : "Steps",
          "reasons" : [
            {
              "categoryCode" : "Conditions",
              "categoryKey" : 1,
              "reasonKey" : 200,
              "reasonName" : "You earned the maximum points available for this activity",
              "reasonCode" : "Maximum points",
              "categoryName" : "Conditions"
            }
          ],
          "potentialValue" : 100,
          "eventId" : 16365202,
          "prelimitValue" : 100,
          "categoryCode" : "GetActive",
          "goalPointsTrackers" : [
            {
              "pointsContributing" : 100,
              "goalCode" : "ActiveRewards",
              "goalKey" : 1,
              "goalName" : "Active Rewards Goal"
            }
          ],
          "earnedValue" : 100,
          "categoryKey" : 8,
          "effectiveDate" : "2017-08-29T05:00:40.000000000+02:00[+02:00]",
          "typeKey" : 10
        },
        {
          "id" : 11712986,
          "categoryName" : "Get Active",
          "typeName" : "Steps",
          "metadatas" : [
            {
              "typeKey" : 3,
              "typeName" : "Manufacturer",
              "value" : "jawbone_up",
              "typeCode" : "Manufacturer"
            },
            {
              "typeKey" : 1,
              "typeName" : "DeviceDataCategory",
              "value" : "Fitness",
              "typeCode" : "DeviceDataCategory"
            },
            {
              "typeKey" : 5,
              "typeName" : "StartTime",
              "value" : "2017-08-23T13:45:40+02:00",
              "typeCode" : "StartTime"
            },
            {
              "typeKey" : 6,
              "typeName" : "EndTime",
              "value" : "2017-08-23T14:15:40+02:00",
              "typeCode" : "EndTime"
            },
            {
              "typeKey" : 7,
              "typeName" : "Integrity",
              "value" : "VERIFIED",
              "typeCode" : "Integrity"
            },
            {
              "typeKey" : 52,
              "typeName" : "Total Steps",
              "value" : "15200",
              "typeCode" : "Total Steps"
            },
            {
              "typeKey" : 53,
              "typeName" : "FloorsAscended",
              "value" : "5.0",
              "typeCode" : "FloorsAscended"
            },
            {
              "typeKey" : 55,
              "typeName" : "Distance",
              "value" : "3934.56",
              "typeCode" : "Distance"
            },
            {
              "typeKey" : 92,
              "typeName" : "TotEnergyExpenditure",
              "value" : "1840.0",
              "typeCode" : "TotEnergyExpenditure"
            },
            {
              "typeKey" : 192,
              "typeName" : "ReadingType",
              "value" : "walk",
              "typeCode" : "ReadingType"
            }
          ],
          "typeCode" : "Steps",
          "reasons" : [
            {
              "categoryCode" : "Conditions",
              "categoryKey" : 1,
              "reasonKey" : 200,
              "reasonName" : "You earned the maximum points available for this activity",
              "reasonCode" : "Maximum points",
              "categoryName" : "Conditions"
            }
          ],
          "potentialValue" : 100,
          "eventId" : 16101770,
          "prelimitValue" : 100,
          "categoryCode" : "GetActive",
          "goalPointsTrackers" : [
            {
              "pointsContributing" : 100,
              "goalCode" : "ActiveRewards",
              "goalKey" : 1,
              "goalName" : "Active Rewards Goal"
            }
          ],
          "earnedValue" : 100,
          "categoryKey" : 8,
          "effectiveDate" : "2017-08-23T13:45:40.000000000+02:00[+02:00]",
          "typeKey" : 10
        },
        {
          "id" : 11836028,
          "categoryName" : "Get Active",
          "metadatas" : [
            {
              "typeKey" : 1,
              "typeName" : "DeviceDataCategory",
              "value" : "Fitness",
              "typeCode" : "DeviceDataCategory"
            },
            {
              "typeKey" : 3,
              "typeName" : "Manufacturer",
              "value" : "jawbone_up",
              "typeCode" : "Manufacturer"
            },
            {
              "typeKey" : 5,
              "typeName" : "StartTime",
              "value" : "2017-08-25T06:45:40+02:00",
              "typeCode" : "StartTime"
            },
            {
              "typeKey" : 6,
              "typeName" : "EndTime",
              "value" : "2017-08-25T07:30:40+02:00",
              "typeCode" : "EndTime"
            },
            {
              "typeKey" : 7,
              "typeName" : "Integrity",
              "value" : "VERIFIED",
              "typeCode" : "Integrity"
            },
            {
              "typeKey" : 52,
              "typeName" : "Total Steps",
              "value" : "15200",
              "typeCode" : "Total Steps"
            },
            {
              "typeKey" : 53,
              "typeName" : "FloorsAscended",
              "value" : "5.0",
              "typeCode" : "FloorsAscended"
            },
            {
              "typeKey" : 55,
              "typeName" : "Distance",
              "value" : "3934.56",
              "typeCode" : "Distance"
            },
            {
              "typeKey" : 92,
              "typeName" : "TotEnergyExpenditure",
              "value" : "1840.0",
              "typeCode" : "TotEnergyExpenditure"
            },
            {
              "typeKey" : 192,
              "typeName" : "ReadingType",
              "value" : "walk",
              "typeCode" : "ReadingType"
            }
          ],
          "typeCode" : "Steps",
          "reasons" : [
            {
              "categoryCode" : "Conditions",
              "categoryKey" : 1,
              "reasonKey" : 200,
              "reasonName" : "You earned the maximum points available for this activity",
              "reasonCode" : "Maximum points",
              "categoryName" : "Conditions"
            }
          ],
          "potentialValue" : 100,
          "eventId" : 16225569,
          "prelimitValue" : 100,
          "categoryCode" : "GetActive",
          "earnedValue" : 100,
          "effectiveDate" : "2017-08-25T06:45:40.000000000+02:00[+02:00]",
          "categoryKey" : 8,
          "typeKey" : 10,
          "typeName" : "Steps"
        },
        {
          "id" : 11904040,
          "categoryName" : "Get Active",
          "typeName" : "Steps",
          "metadatas" : [
            {
              "typeKey" : 3,
              "typeName" : "Manufacturer",
              "value" : "jawbone_up",
              "typeCode" : "Manufacturer"
            },
            {
              "typeKey" : 52,
              "typeName" : "Total Steps",
              "value" : "15200",
              "typeCode" : "Total Steps"
            }
          ],
          "typeCode" : "Steps",
          "reasons" : [
            {
              "categoryCode" : "Conditions",
              "categoryKey" : 1,
              "reasonKey" : 211,
              "reasonName" : "Higher points have already been awarded for an activity in this group",
              "reasonCode" : "HghrPtsAwardedGrped",
              "categoryName" : "Conditions"
            }
          ],
          "potentialValue" : 100,
          "eventId" : 16274025,
          "prelimitValue" : 0,
          "categoryCode" : "GetActive",
          "goalPointsTrackers" : [
            {
              "pointsContributing" : 100,
              "goalCode" : "ActiveRewards",
              "goalKey" : 1,
              "goalName" : "Active Rewards Goal"
            }
          ],
          "earnedValue" : 0,
          "categoryKey" : 8,
          "effectiveDate" : "2017-08-26T07:00:40.000000000+02:00[+02:00]",
          "typeKey" : 10
        }
      ],
      "carryOverPoints" : 0,
      "pointsTotal" : 600,
      "effectiveFrom" : "2017-01-01",
      "effectiveTo" : "2019-12-31"
    }
  ]
}
