{
  "getGoalProgressAndDetailsResponse" : {
    "goalTrackerOuts" : [
      {
        "id" : 456603,
        "completedObjectives" : 0,
        "goalTrackerStatusKey" : 7,
        "effectiveFrom" : "2017-10-17",
        "goalKey" : 1,
        "totalObjectives" : 1,
        "objectiveTrackers" : [
          {
            "objectiveCode" : "ActiveRewardsFitness",
            "pointsTarget" : 140,
            "effectiveFrom" : "2017-10-17",
            "objectiveKey" : 1,
            "objectiveName" : "Earn Active Rewards Fitness Points",
            "statusName" : "Objective Not Achieved",
            "monitorUntil" : "2017-10-25",
            "pointsAchieved" : 0,
            "effectiveTo" : "2017-10-19",
            "statusCode" : "NotAchieved",
            "percentageCompleted" : 0,
            "statusChangedOn" : "2017-10-17",
            "objectivePointsEntries" : [

            ],
            "statusKey" : 2
          }
        ],
        "monitorUntil" : "2017-10-25",
        "effectiveTo" : "2017-10-19",
        "goalName" : "Active Rewards Goal",
        "goalTrackerStatusName" : "Goal In Progress",
        "partyId" : 20140969,
        "goalCode" : "ActiveRewards",
        "percentageCompleted" : 0,
        "statusChangedOn" : "2017-10-17",
        "goalTrackerStatusCode" : "InProgress"
      }
    ]
  }
}
