{
  "getGoalProgressAndDetailsResponse" : {
    "goalTrackerOuts" : [
      {
        "id" : 456603,
        "completedObjectives" : 0,
        "goalTrackerStatusKey" : 2,
        "effectiveFrom" : "2017-10-17",
        "goalKey" : 1,
        "totalObjectives" : 1,
        "objectiveTrackers" : [
          {
            "objectiveCode" : "ActiveRewardsFitness",
            "pointsTarget" : 140,
            "effectiveFrom" : "2017-10-17",
            "objectiveKey" : 1,
            "objectiveName" : "Earn Active Rewards Fitness Points",
            "statusName" : "Objective Not Achieved",
            "monitorUntil" : "2017-10-25",
            "pointsAchieved" : 100,
            "effectiveTo" : "2017-10-19",
            "statusCode" : "NotAchieved",
            "percentageCompleted" : 71,
            "statusChangedOn" : "2017-10-17",
            "objectivePointsEntries" : [
              {
                "earnedValue" : 100,
                "typeName" : "Steps",
                "partyId" : 20140969,
                "categoryName" : "Get Active",
                "statusTypeCode" : "Calculated",
                "statusTypeName" : "Calculated",
                "statusChangeDate" : "2017-10-17",
                "statusTypeKey" : 2,
                "eventId" : 25727662,
                "categoryKey" : 8,
                "pointsEntryMetadatas" : [
                                          {
                                          "typeKey" : 3,
                                          "typeName" : "Manufacturer",
                                          "value" : "Apple",
                                          "typeCode" : "Manufacturer"
                                          },
                                          {
                                          "typeKey" : 5,
                                          "typeName" : "StartTime",
                                          "value" : "2017-10-17T12:00:40+02:00",
                                          "typeCode" : "StartTime"
                                          },
                                          {
                                          "typeKey" : 6,
                                          "typeName" : "EndTime",
                                          "value" : "2017-10-17T12:38:40+02:00",
                                          "typeCode" : "EndTime"
                                          },
                                          {
                                          "typeKey" : 7,
                                          "typeName" : "Integrity",
                                          "value" : "VERIFIED",
                                          "typeCode" : "Integrity"
                                          },
                                          {
                                          "typeKey" : 52,
                                          "typeName" : "TotalSteps",
                                          "value" : "15200",
                                          "typeCode" : "TotalSteps"
                                          },
                                          {
                                          "typeKey" : 53,
                                          "typeName" : "FloorsAscended",
                                          "value" : "5.0",
                                          "typeCode" : "FloorsAscended"
                                          },
                                          {
                                          "typeKey" : 55,
                                          "typeName" : "Distance",
                                          "value" : "3934.56",
                                          "typeCode" : "Distance"
                                          },
                                          {
                                          "typeKey" : 1,
                                          "typeName" : "DeviceDataCategory",
                                          "value" : "Fitness",
                                          "typeCode" : "DeviceDataCategory"
                                          },
                                          {
                                          "typeKey" : 92,
                                          "typeName" : "TotEnergyExpenditure",
                                          "value" : "1840.0",
                                          "typeCode" : "TotEnergyExpenditure"
                                          },
                                          {
                                          "typeKey" : 192,
                                          "typeName" : "ReadingType",
                                          "value" : "walk",
                                          "typeCode" : "ReadingType"
                                          }
                ],
                "id" : 21296927,
                "systemAwareOn" : "2017-10-17T17:14:50.833000000Z[UTC]",
                "prelimitValue" : 100,
                "pointsContributed" : 100,
                "categoryCode" : "GetActive",
                "reason" : [
                  {
                    "categoryCode" : "Conditions",
                    "categoryKey" : 1,
                    "reasonKey" : 200,
                    "reasonName" : "You earned the maximum points available for this activity",
                    "reasonCode" : "Maximum points",
                    "categoryName" : "Conditions"
                  }
                ],
                "effectiveDate" : "2017-10-17T12:00:40.000000000+02:00[+02:00]",
                "potentialValue" : 100,
                "typeKey" : 10,
                "typeCode" : "Steps"
              }
            ],
            "statusKey" : 2
          }
        ],
        "monitorUntil" : "2017-10-25",
        "effectiveTo" : "2017-10-19",
        "goalName" : "Active Rewards Goal",
        "goalTrackerStatusName" : "Goal Not Achieved",
        "partyId" : 20140969,
        "goalCode" : "ActiveRewards",
        "percentageCompleted" : 0,
        "statusChangedOn" : "2017-10-17",
        "goalTrackerStatusCode" : "NotAchieved"
      }
    ]
  }
}
