{
  "getGoalProgressAndDetailsResponse" : {
    "goalTrackerOuts" : [
      {
        "id" : 456603,
        "completedObjectives" : 1,
        "goalTrackerStatusKey" : 1,
        "effectiveFrom" : "2017-10-17",
        "goalKey" : 1,
        "totalObjectives" : 1,
        "objectiveTrackers" : [
          {
            "objectiveCode" : "ActiveRewardsFitness",
            "pointsTarget" : 140,
            "effectiveFrom" : "2017-10-17",
            "objectiveKey" : 1,
            "objectiveName" : "Earn Active Rewards Fitness Points",
            "statusName" : "Objective Achieved",
            "monitorUntil" : "2017-10-25",
            "pointsAchieved" : 140,
            "effectiveTo" : "2017-10-19",
            "statusCode" : "Achieved",
            "percentageCompleted" : 100,
            "statusChangedOn" : "2017-10-17",
            "objectivePointsEntries" : [
              {
                "earnedValue" : 140,
                "typeName" : "Steps",
                "partyId" : 20140969,
                "categoryName" : "Get Active",
                "statusTypeCode" : "Calculated",
                "statusTypeName" : "Calculated",
                "statusChangeDate" : "2017-10-17",
                "statusTypeKey" : 2,
                "eventId" : 25727662,
                "categoryKey" : 8,
                "pointsEntryMetadatas" : [
                  {
                    "typeKey" : 3,
                    "typeName" : "Manufacturer",
                    "value" : "Apple",
                    "typeCode" : "Manufacturer"
                  },
                  {
                    "typeKey" : 5,
                    "typeName" : "Start Time",
                    "value" : "2017-10-17T12:00:40+02:00",
                    "typeCode" : "StartTime"
                  },
                  {
                    "typeKey" : 6,
                    "typeName" : "End Time",
                    "value" : "2017-10-17T12:38:40+02:00",
                    "typeCode" : "EndTime"
                  },
                  {
                    "typeKey" : 52,
                    "typeName" : "Total Steps",
                    "value" : "15200",
                    "typeCode" : "TotalSteps"
                  },
                  {
                    "typeKey" : 53,
                    "typeName" : "Floors Ascended",
                    "value" : "5.0",
                    "typeCode" : "FloorsAscended"
                  },
                  {
                    "typeKey" : 55,
                    "typeName" : "Distance",
                    "value" : "3934.56",
                    "typeCode" : "Distance"
                  },
                  {
                    "typeKey" : 1,
                    "typeName" : "Device Data Category",
                    "value" : "Fitness",
                    "typeCode" : "DeviceDataCategory"
                  },
                  {
                    "typeKey" : 92,
                    "typeName" : "Total Energy Expenditure",
                    "value" : "1840.0",
                    "typeCode" : "TotEnergyExpenditure"
                  },
                  {
                    "typeKey" : 192,
                    "typeName" : "Reading Type",
                    "value" : "walk",
                    "typeCode" : "ReadingType"
                  }
                ],
                "id" : 21296927,
                "systemAwareOn" : "2017-10-17T17:14:50.833000000Z[UTC]",
                "prelimitValue" : 140,
                "pointsContributed" : 140,
                "categoryCode" : "GetActive",
                "reason" : [
                  {
                    "categoryCode" : "Conditions",
                    "categoryKey" : 1,
                    "reasonKey" : 200,
                    "reasonName" : "You earned the maximum points available for this activity",
                    "reasonCode" : "Maximum points",
                    "categoryName" : "Conditions"
                  }
                ],
                "effectiveDate" : "2017-10-17T12:00:40.000000000+02:00[+02:00]",
                "potentialValue" : 140,
                "typeKey" : 10,
                "typeCode" : "Steps"
              }
            ],
            "statusKey" : 1
          }
        ],
        "monitorUntil" : "2017-10-25",
        "effectiveTo" : "2017-10-19",
        "goalName" : "Active Rewards Goal",
        "goalTrackerStatusName" : "Goal Achieved",
        "partyId" : 20140969,
        "goalCode" : "ActiveRewards",
        "percentageCompleted" : 100,
        "statusChangedOn" : "2017-10-17",
        "goalTrackerStatusCode" : "Achieved"
      }
    ]
  }
}
