{
    "eventType" : [
                   {
                   "reasonCode" : "Maximum points",
                   "categoryName" : "VHC",
                   "reasonKey" : 200,
                   "typeCode" : "Body Mass Index",
                   "event" : [
                              {
                              "healthAttributeReadings" : [
                                                           {
                                                           "healthAttributeFeedbacks" : [
                                                                                         {
                                                                                         "feedbackTypeTypeCode" : "Conclusion",
                                                                                         "feedbackTypeKey" : 2,
                                                                                         "feedbackTypeName" : "Your BMI is healthy, keep up the good work",
                                                                                         "feedbackTypeTypeKey" : 1,
                                                                                         "feedbackTypeCode" : "BMIHealthy",
                                                                                         "feedbackTypeTypeName" : "Conclusion"
                                                                                         }
                                                                                         ],
                                                           "healthAttributeTypeKey" : 37,
                                                           "measuredOn" : "2017-09-06",
                                                           "healthAttributeTypeCode" : "BMI",
                                                           "healthAttributeTypeName" : "BMI",
                                                           "value" : "24.691358024691358",
                                                           "unitOfMeasure" : "100164"
                                                           }
                                                           ],
                              "eventMetaDataType" : [
                                                     {
                                                     "code" : "Value",
                                                     "value" : "24.691358024691358",
                                                     "key" : 166,
                                                     "name" : "Value"
                                                     }
                                                     ],
                              "pointsEntries" : [
                                                 {
                                                 "id" : 18099856,
                                                 "categoryName" : "Screening",
                                                 "typeCode" : "BMI",
                                                 "potentialValue" : 750,
                                                 "statusTypeKey" : 2,
                                                 "reason" : [
                                                             {
                                                             "categoryCode" : "Conditions",
                                                             "categoryKey" : 1,
                                                             "reasonKey" : 200,
                                                             "reasonName" : "You earned the maximum points available for this activity",
                                                             "reasonCode" : "Maximum points",
                                                             "categoryName" : "Conditions"
                                                             }
                                                             ],
                                                 "statusTypeName" : "Calculated",
                                                 "categoryCode" : "Screening",
                                                 "earnedValue" : 750,
                                                 "statusTypeCode" : "Calculated",
                                                 "categoryKey" : 6,
                                                 "typeKey" : 11,
                                                 "typeName" : "Measured Body Mass Index"
                                                 },
                                                 {
                                                 "id" : 18099867,
                                                 "categoryName" : "Screening",
                                                 "typeCode" : "BMIHR",
                                                 "potentialValue" : 1500,
                                                 "statusTypeKey" : 2,
                                                 "reason" : [
                                                             {
                                                             "categoryCode" : "Conditions",
                                                             "categoryKey" : 1,
                                                             "reasonKey" : 200,
                                                             "reasonName" : "You earned the maximum points available for this activity",
                                                             "reasonCode" : "Maximum points",
                                                             "categoryName" : "Conditions"
                                                             }
                                                             ],
                                                 "statusTypeName" : "Calculated",
                                                 "categoryCode" : "Screening",
                                                 "earnedValue" : 1500,
                                                 "statusTypeCode" : "Calculated",
                                                 "categoryKey" : 6,
                                                 "typeKey" : 12,
                                                 "typeName" : "Body Mass Index healthy range"
                                                 }
                                                 ],
                              "eventId" : 22591427,
                              "eventSource" : {
                              "eventSourceCode" : "MobileApp",
                              "eventSourceKey" : 1
                              },
                              "eventDateTime" : "2017-09-06T10:22:23.320000000Z[Z]"
                              }
                              ],
                   "healthAttribute" : [
                                        {
                                        "healthAttributeTypeValidValueses" : [
                                                                              {
                                                                              "typeTypeName" : "Decimal Range",
                                                                              "typeTypeCode" : "Decimal Range",
                                                                              "typeTypeKey" : 5,
                                                                              "minValue" : "50",
                                                                              "unitofMeasure" : "100164"
                                                                              }
                                                                              ],
                                        "typeName" : "BMI",
                                        "typekey" : 37,
                                        "typeCode" : "BMI"
                                        }
                                        ],
                   "reasonName" : "You earned the maximum points available for this activity",
                   "categoryCode" : "Vitality健康診断",
                   "totalEarnedPoints" : 2250,
                   "totalPotentialPoints" : 2250,
                   "categoryKey" : 22,
                   "typeKey" : 99,
                   "typeName" : "BMI"
                   },
                   {
                   "totalEarnedPoints" : 0,
                   "totalPotentialPoints" : 2250,
                   "categoryCode" : "HealthAttribute",
                   "typeCode" : "BloodPressure",
                   "event" : [
                   
                   ],
                   "typeKey" : 135,
                   "typeName" : "BloodPressure",
                   "categoryKey" : 18,
                   "healthAttribute" : [
                                        {
                                        "healthAttributeTypeValidValueses" : [
                                                                              {
                                                                              "typeTypeCode" : "Decimal Range",
                                                                              "unitofMeasure" : "100129",
                                                                              "maxValue" : "160",
                                                                              "upperLimit" : "80",
                                                                              "minValue" : "20",
                                                                              "lowerLimit" : "60",
                                                                              "typeTypeKey" : 5,
                                                                              "typeTypeName" : "Decimal Range"
                                                                              }
                                                                              ],
                                        "typeName" : "BloodPressureDiastolic",
                                        "typekey" : 3,
                                        "typeCode" : "BloodPressureDiasto"
                                        }
                                        ],
                   "categoryName" : "HealthAttribute"
                   },
                   {
                   "reasonCode" : "Maximum points",
                   "categoryName" : "VHC",
                   "reasonKey" : 200,
                   "typeCode" : "SystolicPressure",
                   "event" : [
                              {
                              "healthAttributeReadings" : [
                              
                              ],
                              "eventMetaDataType" : [
                                                     {
                                                     "code" : "Value",
                                                     "unitOfMeasure" : "100129",
                                                     "key" : 166,
                                                     "value" : "120.0",
                                                     "name" : "Value"
                                                     }
                                                     ],
                              "pointsEntries" : [
                              
                              ],
                              "eventId" : 22588716,
                              "eventSource" : {
                              "eventSourceCode" : "MobileApp",
                              "eventSourceKey" : 1
                              },
                              "eventDateTime" : "2017-09-06T12:20:57.534000000+02:00[Africa\/Johannesburg]"
                              }
                              ],
                   "healthAttribute" : [
                                        {
                                        "healthAttributeTypeValidValueses" : [
                                                                              {
                                                                              "typeTypeCode" : "Decimal Range",
                                                                              "unitofMeasure" : "100129",
                                                                              "maxValue" : "240",
                                                                              "upperLimit" : "120",
                                                                              "minValue" : "40",
                                                                              "lowerLimit" : "90",
                                                                              "typeTypeKey" : 5,
                                                                              "typeTypeName" : "Decimal Range"
                                                                              }
                                                                              ],
                                        "typeName" : "BloodPressureSystol",
                                        "typekey" : 2,
                                        "typeCode" : "BloodPressureSystol"
                                        }
                                        ],
                   "reasonName" : "You earned the maximum points available for this activity",
                   "categoryCode" : "Vitality健康診断",
                   "totalEarnedPoints" : 0,
                   "totalPotentialPoints" : 0,
                   "categoryKey" : 22,
                   "typeKey" : 92,
                   "typeName" : "SystolicPressure"
                   },
                   {
                   "reasonCode" : "Daily",
                   "categoryName" : "VHC",
                   "reasonKey" : 101,
                   "typeCode" : "RandomGlucose",
                   "event" : [
                              {
                              "healthAttributeReadings" : [
                                                           {
                                                           "healthAttributeFeedbacks" : [
                                                                                         {
                                                                                         "feedbackTypeTypeCode" : "Conclusion",
                                                                                         "feedbackTypeKey" : 27,
                                                                                         "feedbackTypeName" : "Your Random Glucose is healthy, keep up the good work",
                                                                                         "feedbackTypeTypeKey" : 1,
                                                                                         "feedbackTypeCode" : "RGlucoseInRange",
                                                                                         "feedbackTypeTypeName" : "Conclusion"
                                                                                         }
                                                                                         ],
                                                           "healthAttributeTypeKey" : 9,
                                                           "measuredOn" : "2017-09-06",
                                                           "healthAttributeTypeCode" : "RandomGlucose",
                                                           "healthAttributeTypeName" : "RandomGlucose",
                                                           "value" : "2.2222222222222223",
                                                           "unitOfMeasure" : "100127"
                                                           }
                                                           ],
                              "eventMetaDataType" : [
                                                     {
                                                     "code" : "Value",
                                                     "unitOfMeasure" : "100128",
                                                     "key" : 166,
                                                     "value" : "40.0",
                                                     "name" : "Value"
                                                     }
                                                     ],
                              "pointsEntries" : [
                                                 {
                                                 "id" : 18099863,
                                                 "categoryName" : "Screening",
                                                 "typeCode" : "GlucoseHR",
                                                 "potentialValue" : 1500,
                                                 "statusTypeKey" : 2,
                                                 "reason" : [
                                                             {
                                                             "categoryCode" : "TypeLimit",
                                                             "categoryKey" : 3,
                                                             "reasonKey" : 101,
                                                             "reasonName" : "You have reached the daily membership points limit value for this activity",
                                                             "reasonCode" : "Daily",
                                                             "categoryName" : "Points Entry Type Limit"
                                                             }
                                                             ],
                                                 "statusTypeName" : "Calculated",
                                                 "categoryCode" : "Screening",
                                                 "earnedValue" : 0,
                                                 "statusTypeCode" : "Calculated",
                                                 "categoryKey" : 6,
                                                 "typeKey" : 14,
                                                 "typeName" : "Glucose healthy range"
                                                 },
                                                 {
                                                 "id" : 18099866,
                                                 "categoryName" : "Screening",
                                                 "typeCode" : "Glucose",
                                                 "potentialValue" : 750,
                                                 "statusTypeKey" : 2,
                                                 "reason" : [
                                                             {
                                                             "categoryCode" : "TypeLimit",
                                                             "categoryKey" : 3,
                                                             "reasonKey" : 101,
                                                             "reasonName" : "You have reached the daily membership points limit value for this activity",
                                                             "reasonCode" : "Daily",
                                                             "categoryName" : "Points Entry Type Limit"
                                                             }
                                                             ],
                                                 "statusTypeName" : "Calculated",
                                                 "categoryCode" : "Screening",
                                                 "earnedValue" : 0,
                                                 "statusTypeCode" : "Calculated",
                                                 "categoryKey" : 6,
                                                 "typeKey" : 13,
                                                 "typeName" : "Measured Glucose"
                                                 }
                                                 ],
                              "eventId" : 22588724,
                              "eventSource" : {
                              "eventSourceCode" : "MobileApp",
                              "eventSourceKey" : 1
                              },
                              "eventDateTime" : "2017-09-06T12:20:57.535000000+02:00[Africa\/Johannesburg]"
                              }
                              ],
                   "healthAttribute" : [
                                        {
                                        "healthAttributeTypeValidValueses" : [
                                                                              {
                                                                              "maxValue" : "450",
                                                                              "typeTypeName" : "Decimal Range",
                                                                              "typeTypeCode" : "Decimal Range",
                                                                              "typeTypeKey" : 5,
                                                                              "minValue" : "18",
                                                                              "unitofMeasure" : "100128"
                                                                              },
                                                                              {
                                                                              "maxValue" : "25",
                                                                              "typeTypeName" : "Decimal Range",
                                                                              "typeTypeCode" : "Decimal Range",
                                                                              "typeTypeKey" : 5,
                                                                              "minValue" : "1",
                                                                              "unitofMeasure" : "100127"
                                                                              }
                                                                              ],
                                        "typeName" : "RandomGlucose",
                                        "typekey" : 9,
                                        "typeCode" : "RandomGlucose"
                                        }
                                        ],
                   "reasonName" : "You have reached the daily membership points limit value for this activity",
                   "categoryCode" : "Vitality健康診断",
                   "totalEarnedPoints" : 0,
                   "totalPotentialPoints" : 2250,
                   "categoryKey" : 22,
                   "typeKey" : 91,
                   "typeName" : "RandomGlucose"
                   },
                   {
                   "reasonCode" : "Maximum points",
                   "categoryName" : "VHC",
                   "reasonKey" : 200,
                   "typeCode" : "WaistCircum",
                   "event" : [
                              {
                              "healthAttributeReadings" : [
                                                           {
                                                           "healthAttributeFeedbacks" : [
                                                                                         {
                                                                                         "feedbackTypeTypeCode" : "Observation",
                                                                                         "feedbackTypeKey" : 14,
                                                                                         "feedbackTypeName" : "Your Waist Circumference is healthy, keep up the good work",
                                                                                         "feedbackTypeTypeKey" : 3,
                                                                                         "feedbackTypeCode" : "WaistCircumHealthy",
                                                                                         "feedbackTypeTypeName" : "Feedback that is giving an observation"
                                                                                         }
                                                                                         ],
                                                           "healthAttributeTypeKey" : 1,
                                                           "measuredOn" : "2017-09-06",
                                                           "healthAttributeTypeCode" : "WaistCircumference",
                                                           "healthAttributeTypeName" : "Waist Circumference",
                                                           "value" : "91.44",
                                                           "unitOfMeasure" : "100111"
                                                           }
                                                           ],
                              "eventMetaDataType" : [
                                                     {
                                                     "code" : "Value",
                                                     "unitOfMeasure" : "100105",
                                                     "key" : 166,
                                                     "value" : "36.0",
                                                     "name" : "Value"
                                                     }
                                                     ],
                              "pointsEntries" : [
                              
                              ],
                              "eventId" : 22591501,
                              "eventSource" : {
                              "eventSourceCode" : "MobileApp",
                              "eventSourceKey" : 1
                              },
                              "eventDateTime" : "2017-09-06T12:20:57.532000000+02:00[Africa\/Johannesburg]"
                              }
                              ],
                   "healthAttribute" : [
                                        {
                                        "healthAttributeTypeValidValueses" : [
                                                                              {
                                                                              "maxValue" : "140",
                                                                              "typeTypeName" : "Number Range",
                                                                              "typeTypeCode" : "Number Range",
                                                                              "typeTypeKey" : 2,
                                                                              "minValue" : "11.8",
                                                                              "unitofMeasure" : "100105"
                                                                              },
                                                                              {
                                                                              "maxValue" : "250",
                                                                              "typeTypeName" : "Number Range",
                                                                              "typeTypeCode" : "Number Range",
                                                                              "typeTypeKey" : 2,
                                                                              "minValue" : "30",
                                                                              "unitofMeasure" : "100111"
                                                                              }
                                                                              ],
                                        "typeName" : "Waist Circumference",
                                        "typekey" : 1,
                                        "typeCode" : "WaistCircumference"
                                        }
                                        ],
                   "reasonName" : "You earned the maximum points available for this activity",
                   "categoryCode" : "Vitality健康診断",
                   "totalEarnedPoints" : 0,
                   "totalPotentialPoints" : 0,
                   "categoryKey" : 22,
                   "typeKey" : 89,
                   "typeName" : "WaistCircum"
                   },
                   {
                   "reasonCode" : "Maximum points",
                   "categoryName" : "VHC",
                   "reasonKey" : 200,
                   "typeCode" : "HeightCaptured",
                   "event" : [
                              {
                              "healthAttributeReadings" : [
                              
                              ],
                              "eventMetaDataType" : [
                                                     {
                                                     "code" : "Value",
                                                     "unitOfMeasure" : "100117",
                                                     "key" : 166,
                                                     "value" : "3.0",
                                                     "name" : "Value"
                                                     }
                                                     ],
                              "pointsEntries" : [
                              
                              ],
                              "eventId" : 22588719,
                              "eventSource" : {
                              "eventSourceCode" : "MobileApp",
                              "eventSourceKey" : 1
                              },
                              "eventDateTime" : "2017-09-06T12:20:57.535000000+02:00[Africa\/Johannesburg]"
                              }
                              ],
                   "healthAttribute" : [
                                        {
                                        "healthAttributeTypeValidValueses" : [
                                                                              {
                                                                              "maxValue" : "9.833333",
                                                                              "typeTypeName" : "Decimal Range",
                                                                              "typeTypeCode" : "Decimal Range",
                                                                              "typeTypeKey" : 5,
                                                                              "minValue" : "2.583333",
                                                                              "unitofMeasure" : "100117"
                                                                              },
                                                                              {
                                                                              "maxValue" : "3",
                                                                              "typeTypeName" : "Decimal Range",
                                                                              "typeTypeCode" : "Decimal Range",
                                                                              "typeTypeKey" : 5,
                                                                              "minValue" : "0.79",
                                                                              "unitofMeasure" : "100103"
                                                                              }
                                                                              ],
                                        "typeName" : "Height",
                                        "typekey" : 12,
                                        "typeCode" : "Height"
                                        }
                                        ],
                   "reasonName" : "You earned the maximum points available for this activity",
                   "categoryCode" : "Vitality健康診断",
                   "totalEarnedPoints" : 0,
                   "totalPotentialPoints" : 0,
                   "categoryKey" : 22,
                   "typeKey" : 87,
                   "typeName" : "HeightCaptured"
                   },
                   {
                   "reasonCode" : "Maximum points",
                   "categoryName" : "VHC",
                   "reasonKey" : 200,
                   "typeCode" : "総コレステロール",
                   "event" : [
                              {
                              "healthAttributeReadings" : [
                                                           {
                                                           "healthAttributeFeedbacks" : [
                                                                                         {
                                                                                         "feedbackTypeTypeCode" : "Conclusion",
                                                                                         "feedbackTypeKey" : 11,
                                                                                         "feedbackTypeName" : "Your Total Cholesterol is above the recommended range, improve your eating habits and eat less sugar",
                                                                                         "feedbackTypeTypeKey" : 1,
                                                                                         "feedbackTypeCode" : "TotalCholesterolHigh",
                                                                                         "feedbackTypeTypeName" : "Conclusion"
                                                                                         }
                                                                                         ],
                                                           "healthAttributeTypeKey" : 4,
                                                           "measuredOn" : "2017-09-06",
                                                           "healthAttributeTypeCode" : "TotalCholesterol",
                                                           "healthAttributeTypeName" : "TotalCholesterol",
                                                           "value" : "116.01",
                                                           "unitOfMeasure" : "100118"
                                                           }
                                                           ],
                              "eventMetaDataType" : [
                                                     {
                                                     "code" : "Value",
                                                     "unitOfMeasure" : "100113",
                                                     "key" : 166,
                                                     "value" : "3.0",
                                                     "name" : "Value"
                                                     }
                                                     ],
                              "pointsEntries" : [
                                                 {
                                                 "id" : 18099858,
                                                 "categoryName" : "Screening",
                                                 "typeCode" : "CholesterolHR",
                                                 "potentialValue" : 0,
                                                 "statusTypeKey" : 2,
                                                 "reason" : [
                                                             {
                                                             "categoryCode" : "Conditions",
                                                             "categoryKey" : 1,
                                                             "reasonKey" : 200,
                                                             "reasonName" : "You earned the maximum points available for this activity",
                                                             "reasonCode" : "Maximum points",
                                                             "categoryName" : "Conditions"
                                                             }
                                                             ],
                                                 "statusTypeName" : "Calculated",
                                                 "categoryCode" : "Screening",
                                                 "earnedValue" : 0,
                                                 "statusTypeCode" : "Calculated",
                                                 "categoryKey" : 6,
                                                 "typeKey" : 9,
                                                 "typeName" : "Cholesterol HR"
                                                 },
                                                 {
                                                 "id" : 18099860,
                                                 "categoryName" : "Screening",
                                                 "typeCode" : "TotCholesterol",
                                                 "potentialValue" : 750,
                                                 "statusTypeKey" : 2,
                                                 "reason" : [
                                                             {
                                                             "categoryCode" : "Conditions",
                                                             "categoryKey" : 1,
                                                             "reasonKey" : 200,
                                                             "reasonName" : "You earned the maximum points available for this activity",
                                                             "reasonCode" : "Maximum points",
                                                             "categoryName" : "Conditions"
                                                             }
                                                             ],
                                                 "statusTypeName" : "Calculated",
                                                 "categoryCode" : "Screening",
                                                 "earnedValue" : 750,
                                                 "statusTypeCode" : "Calculated",
                                                 "categoryKey" : 6,
                                                 "typeKey" : 8,
                                                 "typeName" : "Measured Total Cholesterol"
                                                 }
                                                 ],
                              "eventId" : 22588720,
                              "eventSource" : {
                              "eventSourceCode" : "MobileApp",
                              "eventSourceKey" : 1
                              },
                              "eventDateTime" : "2017-09-06T12:20:57.533000000+02:00[Africa\/Johannesburg]"
                              }
                              ],
                   "healthAttribute" : [
                                        {
                                        "healthAttributeTypeValidValueses" : [
                                                                              {
                                                                              "typeTypeCode" : "Decimal Range",
                                                                              "unitofMeasure" : "100113",
                                                                              "maxValue" : "20",
                                                                              "upperLimit" : "5.2",
                                                                              "minValue" : "0",
                                                                              "lowerLimit" : "2.0",
                                                                              "typeTypeKey" : 5,
                                                                              "typeTypeName" : "Decimal Range"
                                                                              },
                                                                              {
                                                                              "maxValue" : "773.3952",
                                                                              "typeTypeName" : "Decimal Range",
                                                                              "typeTypeCode" : "Decimal Range",
                                                                              "typeTypeKey" : 5,
                                                                              "minValue" : "0",
                                                                              "unitofMeasure" : "100118"
                                                                              }
                                                                              ],
                                        "typeName" : "TotalCholesterol",
                                        "typekey" : 4,
                                        "typeCode" : "TotalCholesterol"
                                        }
                                        ],
                   "reasonName" : "You earned the maximum points available for this activity",
                   "categoryCode" : "Vitality健康診断",
                   "totalEarnedPoints" : 750,
                   "totalPotentialPoints" : 2250,
                   "categoryKey" : 22,
                   "typeKey" : 94,
                   "typeName" : "総コレステロール"
                   },
                   {
                   "reasonCode" : "Maximum points",
                   "categoryName" : "VHC",
                   "reasonKey" : 200,
                   "typeCode" : "LDL（悪玉）コレステロール",
                   "event" : [
                              {
                              "healthAttributeReadings" : [
                                                           {
                                                           "healthAttributeFeedbacks" : [
                                                                                         {
                                                                                         "feedbackTypeTypeCode" : "Conclusion",
                                                                                         "feedbackTypeKey" : 23,
                                                                                         "feedbackTypeName" : "Your LDL Cholesterol is healthy, keep up the good work",
                                                                                         "feedbackTypeTypeKey" : 1,
                                                                                         "feedbackTypeCode" : "LDLHealthy",
                                                                                         "feedbackTypeTypeName" : "Conclusion"
                                                                                         }
                                                                                         ],
                                                           "healthAttributeTypeKey" : 5,
                                                           "measuredOn" : "2017-09-06",
                                                           "healthAttributeTypeCode" : "LDLCholesterol",
                                                           "healthAttributeTypeName" : "LDLCholesterol",
                                                           "value" : "0.07757951900698215",
                                                           "unitOfMeasure" : "100125"
                                                           }
                                                           ],
                              "eventMetaDataType" : [
                                                     {
                                                     "code" : "Value",
                                                     "unitOfMeasure" : "100123",
                                                     "key" : 166,
                                                     "value" : "3.0",
                                                     "name" : "Value"
                                                     }
                                                     ],
                              "pointsEntries" : [
                              
                              ],
                              "eventId" : 22588721,
                              "eventSource" : {
                              "eventSourceCode" : "MobileApp",
                              "eventSourceKey" : 1
                              },
                              "eventDateTime" : "2017-09-06T12:20:57.535000000+02:00[Africa\/Johannesburg]"
                              }
                              ],
                   "healthAttribute" : [
                                        {
                                        "healthAttributeTypeValidValueses" : [
                                                                              {
                                                                              "maxValue" : "10",
                                                                              "typeTypeName" : "Decimal Range",
                                                                              "typeTypeCode" : "Decimal Range",
                                                                              "typeTypeKey" : 5,
                                                                              "minValue" : "0",
                                                                              "unitofMeasure" : "100123"
                                                                              },
                                                                              {
                                                                              "maxValue" : "386.6976",
                                                                              "typeTypeName" : "Decimal Range",
                                                                              "typeTypeCode" : "Decimal Range",
                                                                              "typeTypeKey" : 5,
                                                                              "minValue" : "0",
                                                                              "unitofMeasure" : "100125"
                                                                              }
                                                                              ],
                                        "typeName" : "LDLCholesterol",
                                        "typekey" : 5,
                                        "typeCode" : "LDLCholesterol"
                                        }
                                        ],
                   "reasonName" : "You earned the maximum points available for this activity",
                   "categoryCode" : "Vitality健康診断",
                   "totalEarnedPoints" : 0,
                   "totalPotentialPoints" : 0,
                   "categoryKey" : 22,
                   "typeKey" : 96,
                   "typeName" : "LDL（悪玉）コレステロール"
                   },
                   {
                   "reasonCode" : "Maximum points",
                   "categoryName" : "VHC",
                   "reasonKey" : 200,
                   "typeCode" : "DiastolicPressure",
                   "event" : [
                              {
                              "healthAttributeReadings" : [
                              
                              ],
                              "eventMetaDataType" : [
                                                     {
                                                     "code" : "Value",
                                                     "unitOfMeasure" : "100129",
                                                     "key" : 166,
                                                     "value" : "80.0",
                                                     "name" : "Value"
                                                     }
                                                     ],
                              "pointsEntries" : [
                              
                              ],
                              "eventId" : 22588717,
                              "eventSource" : {
                              "eventSourceCode" : "MobileApp",
                              "eventSourceKey" : 1
                              },
                              "eventDateTime" : "2017-09-06T12:20:57.534000000+02:00[Africa\/Johannesburg]"
                              }
                              ],
                   "healthAttribute" : [
                                        {
                                        "healthAttributeTypeValidValueses" : [
                                                                              {
                                                                              "typeTypeCode" : "Decimal Range",
                                                                              "unitofMeasure" : "100129",
                                                                              "maxValue" : "160",
                                                                              "upperLimit" : "80",
                                                                              "minValue" : "20",
                                                                              "lowerLimit" : "60",
                                                                              "typeTypeKey" : 5,
                                                                              "typeTypeName" : "Decimal Range"
                                                                              }
                                                                              ],
                                        "typeName" : "BloodPressureDiastolic",
                                        "typekey" : 3,
                                        "typeCode" : "BloodPressureDiasto"
                                        }
                                        ],
                   "reasonName" : "You earned the maximum points available for this activity",
                   "categoryCode" : "Vitality健康診断",
                   "totalEarnedPoints" : 0,
                   "totalPotentialPoints" : 0,
                   "categoryKey" : 22,
                   "typeKey" : 93,
                   "typeName" : "DiastolicPressure"
                   },
                   {
                   "reasonCode" : "Maximum points",
                   "categoryName" : "VHC",
                   "reasonKey" : 200,
                   "typeCode" : "TriGlycCholesterol",
                   "event" : [
                   
                   ],
                   "healthAttribute" : [
                                        {
                                        "healthAttributeTypeValidValueses" : [
                                                                              {
                                                                              "maxValue" : "442.8698",
                                                                              "typeTypeName" : "Decimal Range",
                                                                              "typeTypeCode" : "Decimal Range",
                                                                              "typeTypeKey" : 5,
                                                                              "minValue" : "0",
                                                                              "unitofMeasure" : "100119"
                                                                              },
                                                                              {
                                                                              "maxValue" : "5",
                                                                              "typeTypeName" : "Decimal Range",
                                                                              "typeTypeCode" : "Decimal Range",
                                                                              "typeTypeKey" : 5,
                                                                              "minValue" : "0",
                                                                              "unitofMeasure" : "100121"
                                                                              }
                                                                              ],
                                        "typeName" : "Triglycerides",
                                        "typekey" : 13,
                                        "typeCode" : "Triglycerides"
                                        }
                                        ],
                   "reasonName" : "You earned the maximum points available for this activity",
                   "categoryCode" : "Vitality健康診断",
                   "totalEarnedPoints" : 0,
                   "totalPotentialPoints" : 0,
                   "categoryKey" : 22,
                   "typeKey" : 97,
                   "typeName" : "TriGlycCholesterol"
                   },
                   {
                   "reasonCode" : "Maximum points",
                   "categoryName" : "VHC",
                   "reasonKey" : 200,
                   "typeCode" : "HDLCholesterol",
                   "event" : [
                              {
                              "healthAttributeReadings" : [
                                                           {
                                                           "healthAttributeFeedbacks" : [
                                                                                         {
                                                                                         "feedbackTypeTypeCode" : "Conclusion",
                                                                                         "feedbackTypeKey" : 33,
                                                                                         "feedbackTypeName" : "Your HDL Cholesterol is outside the recommended healthy range",
                                                                                         "feedbackTypeTypeKey" : 1,
                                                                                         "feedbackTypeCode" : "HDLOutRange",
                                                                                         "feedbackTypeTypeName" : "Conclusion"
                                                                                         }
                                                                                         ],
                                                           "healthAttributeTypeKey" : 6,
                                                           "measuredOn" : "2017-09-06",
                                                           "healthAttributeTypeCode" : "HDLCholesterol",
                                                           "healthAttributeTypeName" : "HDLCholesterol",
                                                           "value" : "0.07757951900698215",
                                                           "unitOfMeasure" : "100126"
                                                           }
                                                           ],
                              "eventMetaDataType" : [
                                                     {
                                                     "code" : "Value",
                                                     "unitOfMeasure" : "100124",
                                                     "key" : 166,
                                                     "value" : "3.0",
                                                     "name" : "Value"
                                                     }
                                                     ],
                              "pointsEntries" : [
                              
                              ],
                              "eventId" : 22588722,
                              "eventSource" : {
                              "eventSourceCode" : "MobileApp",
                              "eventSourceKey" : 1
                              },
                              "eventDateTime" : "2017-09-06T12:20:57.536000000+02:00[Africa\/Johannesburg]"
                              }
                              ],
                   "healthAttribute" : [
                                        {
                                        "healthAttributeTypeValidValueses" : [
                                                                              {
                                                                              "maxValue" : "386.6976",
                                                                              "typeTypeName" : "Decimal Range",
                                                                              "typeTypeCode" : "Decimal Range",
                                                                              "typeTypeKey" : 5,
                                                                              "minValue" : "0",
                                                                              "unitofMeasure" : "100124"
                                                                              },
                                                                              {
                                                                              "maxValue" : "10",
                                                                              "typeTypeName" : "Decimal Range",
                                                                              "typeTypeCode" : "Decimal Range",
                                                                              "typeTypeKey" : 5,
                                                                              "minValue" : "0",
                                                                              "unitofMeasure" : "100126"
                                                                              }
                                                                              ],
                                        "typeName" : "HDLCholesterol",
                                        "typekey" : 6,
                                        "typeCode" : "HDLCholesterol"
                                        }
                                        ],
                   "reasonName" : "You earned the maximum points available for this activity",
                   "categoryCode" : "Vitality健康診断",
                   "totalEarnedPoints" : 0,
                   "totalPotentialPoints" : 0,
                   "categoryKey" : 22,
                   "typeKey" : 95,
                   "typeName" : "HDLCholesterol"
                   },
                   {
                   "reasonCode" : "Maximum points",
                   "categoryName" : "VHC",
                   "reasonKey" : 200,
                   "typeCode" : "FastingGlucose",
                   "event" : [
                              {
                              "healthAttributeReadings" : [
                                                           {
                                                           "healthAttributeFeedbacks" : [
                                                                                         {
                                                                                         "feedbackTypeTypeCode" : "Conclusion",
                                                                                         "feedbackTypeKey" : 20,
                                                                                         "feedbackTypeName" : "Your Fasting Glucose is healthy, keep up the good work",
                                                                                         "feedbackTypeTypeKey" : 1,
                                                                                         "feedbackTypeCode" : "FGlucoseInRange",
                                                                                         "feedbackTypeTypeName" : "Conclusion"
                                                                                         }
                                                                                         ],
                                                           "healthAttributeTypeKey" : 8,
                                                           "measuredOn" : "2017-09-06",
                                                           "healthAttributeTypeCode" : "FastingGlucose",
                                                           "healthAttributeTypeName" : "FastingGlucose",
                                                           "value" : "2.2222222222222223",
                                                           "unitOfMeasure" : "100122"
                                                           }
                                                           ],
                              "eventMetaDataType" : [
                                                     {
                                                     "code" : "Value",
                                                     "unitOfMeasure" : "100120",
                                                     "key" : 166,
                                                     "value" : "40.0",
                                                     "name" : "Value"
                                                     }
                                                     ],
                              "pointsEntries" : [
                                                 {
                                                 "id" : 18099857,
                                                 "categoryName" : "Screening",
                                                 "typeCode" : "Glucose",
                                                 "potentialValue" : 750,
                                                 "statusTypeKey" : 2,
                                                 "reason" : [
                                                             {
                                                             "categoryCode" : "Conditions",
                                                             "categoryKey" : 1,
                                                             "reasonKey" : 200,
                                                             "reasonName" : "You earned the maximum points available for this activity",
                                                             "reasonCode" : "Maximum points",
                                                             "categoryName" : "Conditions"
                                                             }
                                                             ],
                                                 "statusTypeName" : "Calculated",
                                                 "categoryCode" : "Screening",
                                                 "earnedValue" : 750,
                                                 "statusTypeCode" : "Calculated",
                                                 "categoryKey" : 6,
                                                 "typeKey" : 13,
                                                 "typeName" : "Measured Glucose"
                                                 },
                                                 {
                                                 "id" : 18099859,
                                                 "categoryName" : "Screening",
                                                 "typeCode" : "GlucoseHR",
                                                 "potentialValue" : 1500,
                                                 "statusTypeKey" : 2,
                                                 "reason" : [
                                                             {
                                                             "categoryCode" : "Conditions",
                                                             "categoryKey" : 1,
                                                             "reasonKey" : 200,
                                                             "reasonName" : "You earned the maximum points available for this activity",
                                                             "reasonCode" : "Maximum points",
                                                             "categoryName" : "Conditions"
                                                             }
                                                             ],
                                                 "statusTypeName" : "Calculated",
                                                 "categoryCode" : "Screening",
                                                 "earnedValue" : 1500,
                                                 "statusTypeCode" : "Calculated",
                                                 "categoryKey" : 6,
                                                 "typeKey" : 14,
                                                 "typeName" : "Glucose healthy range"
                                                 }
                                                 ],
                              "eventId" : 22588723,
                              "eventSource" : {
                              "eventSourceCode" : "MobileApp",
                              "eventSourceKey" : 1
                              },
                              "eventDateTime" : "2017-09-06T12:20:57.534000000+02:00[Africa\/Johannesburg]"
                              }
                              ],
                   "healthAttribute" : [
                                        {
                                        "healthAttributeTypeValidValueses" : [
                                                                              {
                                                                              "maxValue" : "450",
                                                                              "typeTypeName" : "Decimal Range",
                                                                              "typeTypeCode" : "Decimal Range",
                                                                              "typeTypeKey" : 5,
                                                                              "minValue" : "18",
                                                                              "unitofMeasure" : "100120"
                                                                              },
                                                                              {
                                                                              "maxValue" : "25",
                                                                              "typeTypeName" : "Decimal Range",
                                                                              "typeTypeCode" : "Decimal Range",
                                                                              "typeTypeKey" : 5,
                                                                              "minValue" : "1",
                                                                              "unitofMeasure" : "100122"
                                                                              }
                                                                              ],
                                        "typeName" : "FastingGlucose",
                                        "typekey" : 8,
                                        "typeCode" : "FastingGlucose"
                                        }
                                        ],
                   "reasonName" : "You earned the maximum points available for this activity",
                   "categoryCode" : "Vitality健康診断",
                   "totalEarnedPoints" : 2250,
                   "totalPotentialPoints" : 2250,
                   "categoryKey" : 22,
                   "typeKey" : 90,
                   "typeName" : "FastingGlucose"
                   },
                   {
                   "reasonCode" : "Maximum points",
                   "categoryName" : "VHC",
                   "reasonKey" : 200,
                   "typeCode" : "WeightCaptured",
                   "event" : [
                              {
                              "healthAttributeReadings" : [
                              
                              ],
                              "eventMetaDataType" : [
                                                     {
                                                     "code" : "Value",
                                                     "unitOfMeasure" : "100102",
                                                     "key" : 166,
                                                     "value" : "80.0",
                                                     "name" : "Value"
                                                     }
                                                     ],
                              "pointsEntries" : [
                              
                              ],
                              "eventId" : 22588718,
                              "eventSource" : {
                              "eventSourceCode" : "MobileApp",
                              "eventSourceKey" : 1
                              },
                              "eventDateTime" : "2017-09-06T12:20:57.533000000+02:00[Africa\/Johannesburg]"
                              }
                              ],
                   "healthAttribute" : [
                                        {
                                        "healthAttributeTypeValidValueses" : [
                                                                              {
                                                                              "typeTypeCode" : "Decimal Range",
                                                                              "unitofMeasure" : "100102",
                                                                              "maxValue" : "500",
                                                                              "upperLimit" : "90",
                                                                              "minValue" : "2",
                                                                              "lowerLimit" : "50",
                                                                              "typeTypeKey" : 5,
                                                                              "typeTypeName" : "Decimal Range"
                                                                              },
                                                                              {
                                                                              "typeTypeCode" : "Decimal Range",
                                                                              "unitofMeasure" : "100109",
                                                                              "maxValue" : "1102.31",
                                                                              "upperLimit" : "198.416",
                                                                              "minValue" : "4.41",
                                                                              "lowerLimit" : "110.231",
                                                                              "typeTypeKey" : 5,
                                                                              "typeTypeName" : "Decimal Range"
                                                                              }
                                                                              ],
                                        "typeName" : "Weight",
                                        "typekey" : 11,
                                        "typeCode" : "Weight"
                                        }
                                        ],
                   "reasonName" : "You earned the maximum points available for this activity",
                   "categoryCode" : "Vitality健康診断",
                   "totalEarnedPoints" : 0,
                   "totalPotentialPoints" : 0,
                   "categoryKey" : 22,
                   "typeKey" : 88,
                   "typeName" : "WeightCaptured"
                   },
                   {
                   "reasonCode" : "Maximum points",
                   "categoryName" : "VHC",
                   "reasonKey" : 200,
                   "typeCode" : "HbA1c",
                   "event" : [
                              {
                              "healthAttributeReadings" : [
                                                           {
                                                           "healthAttributeFeedbacks" : [
                                                                                         {
                                                                                         "feedbackTypeTypeCode" : "Conclusion",
                                                                                         "feedbackTypeKey" : 18,
                                                                                         "feedbackTypeName" : "Your HbA1c reading is healthy! Keep up the good work",
                                                                                         "feedbackTypeTypeKey" : 1,
                                                                                         "feedbackTypeCode" : "HbA1cInRange",
                                                                                         "feedbackTypeTypeName" : "Conclusion"
                                                                                         }
                                                                                         ],
                                                           "healthAttributeTypeKey" : 10,
                                                           "measuredOn" : "2017-09-06",
                                                           "healthAttributeTypeCode" : "HbA1c",
                                                           "healthAttributeTypeName" : "HbA1c",
                                                           "value" : "3.783333333333333",
                                                           "unitOfMeasure" : "100127"
                                                           }
                                                           ],
                              "eventMetaDataType" : [
                                                     {
                                                     "code" : "Value",
                                                     "unitOfMeasure" : "100114",
                                                     "key" : 166,
                                                     "value" : "4.0",
                                                     "name" : "Value"
                                                     }
                                                     ],
                              "pointsEntries" : [
                                                 {
                                                 "id" : 18099861,
                                                 "categoryName" : "Screening",
                                                 "typeCode" : "HbA1c",
                                                 "potentialValue" : 750,
                                                 "statusTypeKey" : 2,
                                                 "reason" : [
                                                             {
                                                             "categoryCode" : "Conditions",
                                                             "categoryKey" : 1,
                                                             "reasonKey" : 200,
                                                             "reasonName" : "You earned the maximum points available for this activity",
                                                             "reasonCode" : "Maximum points",
                                                             "categoryName" : "Conditions"
                                                             }
                                                             ],
                                                 "statusTypeName" : "Calculated",
                                                 "categoryCode" : "Screening",
                                                 "earnedValue" : 750,
                                                 "statusTypeCode" : "Calculated",
                                                 "categoryKey" : 6,
                                                 "typeKey" : 17,
                                                 "typeName" : "Measured HbA1c"
                                                 },
                                                 {
                                                 "id" : 18099864,
                                                 "categoryName" : "Screening",
                                                 "typeCode" : "HbA1cHR",
                                                 "potentialValue" : 1500,
                                                 "statusTypeKey" : 2,
                                                 "reason" : [
                                                             {
                                                             "categoryCode" : "Conditions",
                                                             "categoryKey" : 1,
                                                             "reasonKey" : 200,
                                                             "reasonName" : "You earned the maximum points available for this activity",
                                                             "reasonCode" : "Maximum points",
                                                             "categoryName" : "Conditions"
                                                             }
                                                             ],
                                                 "statusTypeName" : "Calculated",
                                                 "categoryCode" : "Screening",
                                                 "earnedValue" : 1500,
                                                 "statusTypeCode" : "Calculated",
                                                 "categoryKey" : 6,
                                                 "typeKey" : 18,
                                                 "typeName" : "HbA1c healthy range"
                                                 }
                                                 ],
                              "eventId" : 22588725,
                              "eventSource" : {
                              "eventSourceCode" : "MobileApp",
                              "eventSourceKey" : 1
                              },
                              "eventDateTime" : "2017-09-06T12:20:57.534000000+02:00[Africa\/Johannesburg]"
                              }
                              ],
                   "healthAttribute" : [
                                        {
                                        "healthAttributeTypeValidValueses" : [
                                                                              {
                                                                              "maxValue" : "25",
                                                                              "typeTypeName" : "Number Range",
                                                                              "typeTypeCode" : "Number Range",
                                                                              "typeTypeKey" : 2,
                                                                              "minValue" : "0",
                                                                              "unitofMeasure" : "100114"
                                                                              },
                                                                              {
                                                                              "maxValue" : "37.2",
                                                                              "typeTypeName" : "Number Range",
                                                                              "typeTypeCode" : "Number Range",
                                                                              "typeTypeKey" : 2,
                                                                              "minValue" : "2.6",
                                                                              "unitofMeasure" : "100127"
                                                                              }
                                                                              ],
                                        "typeName" : "HbA1c",
                                        "typekey" : 10,
                                        "typeCode" : "HbA1c"
                                        }
                                        ],
                   "reasonName" : "You earned the maximum points available for this activity",
                   "categoryCode" : "Vitality健康診断",
                   "totalEarnedPoints" : 2250,
                   "totalPotentialPoints" : 2250,
                   "categoryKey" : 22,
                   "typeKey" : 98,
                   "typeName" : "HbA1c"
                   }
                   ],
    "warnings" : [
    
    ]
}
