{
	"configurationVersion": {
		"applicationFeatures": [
								{
								"applicationFeatureParameters": [
																 {
																 "name": "gradientColor1",
																 "value": "ffffff"
																 },
																 {
																 },
																 {
																 },
																 {
																 "name": "defaultLanguage",
																 "value": "en"
																 }
																 ],
								"typeKey": 1
								},
								{
								"applicationFeatureParameters": [],
								"typeKey": 2
								},
								{
								"applicationFeatureParameters": [
																 {
																 "name": "lifeRayContentId",
																 "value": "non-smokers-privacy-policy"
																 }
																 ],
								"typeKey": 3
								},
								{
								"applicationFeatureParameters": [
																 {
																 "name": "lifeRayContentId",
																 "value": "vitality-non-smokers"
																 }
																 ],
								"typeKey": 4
								},
								{
								"applicationFeatureParameters": [
																 {
																 "name": "nonsmokersdeclaration_en",
																 "value": "non_smokers_declaration_en.json"
																 },
																 {
																 }
																 ],
								"typeKey": 5
								},
								{
								"applicationFeatureParameters": [],
								"typeKey": 6
								},
								{
								"applicationFeatureParameters": [
																 {
																 "name": "vhc_en",
																 "value": "vhc_en.json"
																 },
																 {
																 }
																 ],
								"typeKey": 7
								}
								],
	},
	"name": "Sumitomo Active",
	"typeKey": 1
}
