{
  "getGoalProgressAndDetailsResponse" : {
    "goalTrackerOuts" : [
      {
        "id" : 203932,
        "completedObjectives" : 1,
        "goalTrackerStatusKey" : 8,
        "effectiveFrom" : "2017-10-02",
        "goalKey" : 1,
        "totalObjectives" : 1,
        "objectiveTrackers" : [
          {
            "objectiveCode" : "ActiveRewardsFitness",
            "pointsTarget" : 150,
            "effectiveFrom" : "2017-10-02",
            "objectiveKey" : 1,
            "objectiveName" : "Earn Active Rewards Fitness Points",
            "statusName" : "Objective Not Achieved",
            "monitorUntil" : "2017-10-21",
            "pointsAchieved" : 150,
            "effectiveTo" : "2017-10-15",
            "statusCode" : "NotAchieved",
            "percentageCompleted" : 100,
            "statusChangedOn" : "2017-10-02",
            "objectivePointsEntries" : [
              {
                "earnedValue" : 150,
                "typeName" : "Steps",
                "partyId" : 100002,
                "categoryName" : "Get Active",
                "statusTypeCode" : "Calculated",
                "statusTypeName" : "Calculated",
                "statusChangeDate" : "2017-10-16",
                "statusTypeKey" : 2,
                "eventId" : 25413441,
                "categoryKey" : 8,
                "pointsEntryMetadatas" : [
                  {
                    "typeKey" : 1,
                    "typeName" : "TotalSteps",
                    "value" : "12001",
                    "typeCode" : "TotalSteps"
                  },
                  {
                    "typeKey" : 3,
                    "typeName" : "DeviceDataCategory",
                    "value" : "ROUTINE",
                    "typeCode" : "DeviceDataCategory"
                  },
                  {
                    "typeKey" : 3,
                    "typeName" : "Model",
                    "value" : "Polar123",
                    "typeCode" : "Model"
                  },
                  {
                    "typeKey" : 3,
                    "typeName" : "Manufacturer",
                    "value" : "Polar",
                    "typeCode" : "Manufacturer"
                  }
                ],
                "id" : 20958139,
                "systemAwareOn" : "2017-10-03T05:13:01.021000000Z[UTC]",
                "prelimitValue" : 150,
                "pointsContributed" : 150,
                "categoryCode" : "GetActive",
                "reason" : [
                  {
                    "categoryCode" : "Conditions",
                    "categoryKey" : 1,
                    "reasonKey" : 200,
                    "reasonName" : "You earned the maximum points available for this activity",
                    "reasonCode" : "Maximum points",
                    "categoryName" : "Conditions"
                  }
                ],
                "effectiveDate" : "2017-10-03T07:45:00.000000000+02:00[Africa\/Johannesburg]",
                "potentialValue" : 150,
                "typeKey" : 10,
                "typeCode" : "Steps"
              }
            ],
            "statusKey" : 2
          }
        ],
        "monitorUntil" : "2017-10-21",
        "effectiveTo" : "2017-10-15",
        "goalName" : "Active Rewards Goal",
        "goalTrackerStatusName" : "Goal Pending",
        "partyId" : 100002,
        "goalCode" : "ActiveRewards",
        "percentageCompleted" : 0,
        "statusChangedOn" : "2017-10-02",
        "goalTrackerStatusCode" : "Pending"
      },
      {
        "id" : 203931,
        "completedObjectives" : 1,
        "goalTrackerStatusKey" : 1,
        "effectiveFrom" : "2017-09-18",
        "goalKey" : 1,
        "totalObjectives" : 1,
        "objectiveTrackers" : [
          {
            "objectiveCode" : "ActiveRewardsFitness",
            "pointsTarget" : 150,
            "effectiveFrom" : "2017-09-18",
            "objectiveKey" : 1,
            "objectiveName" : "Earn Active Rewards Fitness Points",
            "statusName" : "Objective Achieved",
            "monitorUntil" : "2017-10-08",
            "pointsAchieved" : 150,
            "effectiveTo" : "2017-10-01",
            "statusCode" : "Achieved",
            "percentageCompleted" : 100,
            "statusChangedOn" : "2017-09-18",
            "objectivePointsEntries" : [
              {
                "earnedValue" : 150,
                "typeName" : "Steps",
                "partyId" : 100002,
                "categoryName" : "Get Active",
                "statusTypeCode" : "Calculated",
                "statusTypeName" : "Calculated",
                "statusChangeDate" : "2017-10-16",
                "statusTypeKey" : 2,
                "eventId" : 25413440,
                "categoryKey" : 8,
                "pointsEntryMetadatas" : [
                  {
                    "typeKey" : 1,
                    "typeName" : "TotalSteps",
                    "value" : "12001",
                    "typeCode" : "TotalSteps"
                  },
                  {
                    "typeKey" : 3,
                    "typeName" : "DeviceDataCategory",
                    "value" : "ROUTINE",
                    "typeCode" : "DeviceDataCategory"
                  },
                  {
                    "typeKey" : 3,
                    "typeName" : "Model",
                    "value" : "Polar123",
                    "typeCode" : "Model"
                  },
                  {
                    "typeKey" : 3,
                    "typeName" : "Manufacturer",
                    "value" : "Polar",
                    "typeCode" : "Manufacturer"
                  }
                ],
                "id" : 20958138,
                "systemAwareOn" : "2017-09-19T05:13:01.021000000Z[UTC]",
                "prelimitValue" : 150,
                "pointsContributed" : 150,
                "categoryCode" : "GetActive",
                "reason" : [
                  {
                    "categoryCode" : "Conditions",
                    "categoryKey" : 1,
                    "reasonKey" : 200,
                    "reasonName" : "You earned the maximum points available for this activity",
                    "reasonCode" : "Maximum points",
                    "categoryName" : "Conditions"
                  }
                ],
                "effectiveDate" : "2017-09-19T07:45:00.000000000+02:00[Africa\/Johannesburg]",
                "potentialValue" : 150,
                "typeKey" : 10,
                "typeCode" : "Steps"
              }
            ],
            "statusKey" : 2
          }
        ],
        "monitorUntil" : "2017-10-08",
        "effectiveTo" : "2017-10-01",
        "goalName" : "Active Rewards Goal",
        "goalTrackerStatusName" : "Goal Achieved",
        "partyId" : 100002,
        "goalCode" : "ActiveRewards",
        "percentageCompleted" : 0,
        "statusChangedOn" : "2017-09-18",
        "goalTrackerStatusCode" : "Achieved"
      },
      {
        "id" : 203930,
        "completedObjectives" : 0,
        "goalTrackerStatusKey" : 2,
        "effectiveFrom" : "2017-09-04",
        "goalKey" : 1,
        "totalObjectives" : 1,
        "objectiveTrackers" : [
          {
            "objectiveCode" : "ActiveRewardsFitness",
            "pointsTarget" : 150,
            "effectiveFrom" : "2017-09-04",
            "objectiveKey" : 1,
            "objectiveName" : "Earn Active Rewards Fitness Points",
            "statusName" : "Objective Not Achieved",
            "monitorUntil" : "2017-09-23",
            "pointsAchieved" : 0,
            "effectiveTo" : "2017-09-17",
            "statusCode" : "NotAchieved",
            "percentageCompleted" : 0,
            "statusChangedOn" : "2017-09-04",
            "objectivePointsEntries" : [

            ],
            "statusKey" : 2
          }
        ],
        "monitorUntil" : "2017-09-23",
        "effectiveTo" : "2017-09-17",
        "goalName" : "Active Rewards Goal",
        "goalTrackerStatusName" : "Goal Not Achieved",
        "partyId" : 100002,
        "goalCode" : "ActiveRewards",
        "percentageCompleted" : 0,
        "statusChangedOn" : "2017-09-04",
        "goalTrackerStatusCode" : "NotAchieved"
      },
      {
        "id" : 203929,
        "completedObjectives" : 0,
        "goalTrackerStatusKey" : 2,
        "effectiveFrom" : "2017-08-21",
        "goalKey" : 1,
        "totalObjectives" : 1,
        "objectiveTrackers" : [
          {
            "objectiveCode" : "ActiveRewardsFitness",
            "pointsTarget" : 150,
            "effectiveFrom" : "2017-08-21",
            "objectiveKey" : 1,
            "objectiveName" : "Earn Active Rewards Fitness Points",
            "statusName" : "Objective Not Achieved",
            "monitorUntil" : "2017-09-10",
            "pointsAchieved" : 0,
            "effectiveTo" : "2017-09-03",
            "statusCode" : "NotAchieved",
            "percentageCompleted" : 0,
            "statusChangedOn" : "2017-08-21",
            "objectivePointsEntries" : [

            ],
            "statusKey" : 2
          }
        ],
        "monitorUntil" : "2017-09-10",
        "effectiveTo" : "2017-09-03",
        "goalName" : "Active Rewards Goal",
        "goalTrackerStatusName" : "Goal Not Achieved",
        "partyId" : 100002,
        "goalCode" : "ActiveRewards",
        "percentageCompleted" : 0,
        "statusChangedOn" : "2017-08-21",
        "goalTrackerStatusCode" : "NotAchieved"
      },
      {
        "id" : 203928,
        "completedObjectives" : 0,
        "goalTrackerStatusKey" : 2,
        "effectiveFrom" : "2017-08-07",
        "goalKey" : 1,
        "totalObjectives" : 1,
        "objectiveTrackers" : [
          {
            "objectiveCode" : "ActiveRewardsFitness",
            "pointsTarget" : 150,
            "effectiveFrom" : "2017-08-07",
            "objectiveKey" : 1,
            "objectiveName" : "Earn Active Rewards Fitness Points",
            "statusName" : "Objective Not Achieved",
            "monitorUntil" : "2017-08-27",
            "pointsAchieved" : 0,
            "effectiveTo" : "2017-08-20",
            "statusCode" : "NotAchieved",
            "percentageCompleted" : 0,
            "statusChangedOn" : "2017-08-07",
            "objectivePointsEntries" : [

            ],
            "statusKey" : 2
          }
        ],
        "monitorUntil" : "2017-08-27",
        "effectiveTo" : "2017-08-20",
        "goalName" : "Active Rewards Goal",
        "goalTrackerStatusName" : "Goal Not Achieved",
        "partyId" : 100002,
        "goalCode" : "ActiveRewards",
        "percentageCompleted" : 0,
        "statusChangedOn" : "2017-08-07",
        "goalTrackerStatusCode" : "NotAchieved"
      },
      {
        "id" : 203927,
        "completedObjectives" : 0,
        "goalTrackerStatusKey" : 2,
        "effectiveFrom" : "2017-07-24",
        "goalKey" : 1,
        "totalObjectives" : 1,
        "objectiveTrackers" : [
          {
            "objectiveCode" : "ActiveRewardsFitness",
            "pointsTarget" : 150,
            "effectiveFrom" : "2017-07-24",
            "objectiveKey" : 1,
            "objectiveName" : "Earn Active Rewards Fitness Points",
            "statusName" : "Objective Not Achieved",
            "monitorUntil" : "2017-08-13",
            "pointsAchieved" : 0,
            "effectiveTo" : "2017-08-06",
            "statusCode" : "NotAchieved",
            "percentageCompleted" : 0,
            "statusChangedOn" : "2017-07-24",
            "objectivePointsEntries" : [

            ],
            "statusKey" : 2
          }
        ],
        "monitorUntil" : "2017-08-13",
        "effectiveTo" : "2017-08-06",
        "goalName" : "Active Rewards Goal",
        "goalTrackerStatusName" : "Goal Not Achieved",
        "partyId" : 100002,
        "goalCode" : "ActiveRewards",
        "percentageCompleted" : 0,
        "statusChangedOn" : "2017-07-24",
        "goalTrackerStatusCode" : "NotAchieved"
      },
      {
        "id" : 203926,
        "completedObjectives" : 0,
        "goalTrackerStatusKey" : 2,
        "effectiveFrom" : "2017-07-10",
        "goalKey" : 1,
        "totalObjectives" : 1,
        "objectiveTrackers" : [
          {
            "objectiveCode" : "ActiveRewardsFitness",
            "pointsTarget" : 150,
            "effectiveFrom" : "2017-07-10",
            "objectiveKey" : 1,
            "objectiveName" : "Earn Active Rewards Fitness Points",
            "statusName" : "Objective Not Achieved",
            "monitorUntil" : "2017-07-30",
            "pointsAchieved" : 0,
            "effectiveTo" : "2017-07-23",
            "statusCode" : "NotAchieved",
            "percentageCompleted" : 0,
            "statusChangedOn" : "2017-07-10",
            "objectivePointsEntries" : [

            ],
            "statusKey" : 2
          }
        ],
        "monitorUntil" : "2017-07-30",
        "effectiveTo" : "2017-07-23",
        "goalName" : "Active Rewards Goal",
        "goalTrackerStatusName" : "Goal Not Achieved",
        "partyId" : 100002,
        "goalCode" : "ActiveRewards",
        "percentageCompleted" : 0,
        "statusChangedOn" : "2017-07-10",
        "goalTrackerStatusCode" : "NotAchieved"
      },
      {
        "id" : 203925,
        "completedObjectives" : 0,
        "goalTrackerStatusKey" : 2,
        "effectiveFrom" : "2017-06-26",
        "goalKey" : 1,
        "totalObjectives" : 1,
        "objectiveTrackers" : [
          {
            "objectiveCode" : "ActiveRewardsFitness",
            "pointsTarget" : 150,
            "effectiveFrom" : "2017-06-26",
            "objectiveKey" : 1,
            "objectiveName" : "Earn Active Rewards Fitness Points",
            "statusName" : "Objective Not Achieved",
            "monitorUntil" : "2017-07-16",
            "pointsAchieved" : 0,
            "effectiveTo" : "2017-07-09",
            "statusCode" : "NotAchieved",
            "percentageCompleted" : 0,
            "statusChangedOn" : "2017-06-26",
            "objectivePointsEntries" : [

            ],
            "statusKey" : 2
          }
        ],
        "monitorUntil" : "2017-07-16",
        "effectiveTo" : "2017-07-09",
        "goalName" : "Active Rewards Goal",
        "goalTrackerStatusName" : "Goal Not Achieved",
        "partyId" : 100002,
        "goalCode" : "ActiveRewards",
        "percentageCompleted" : 0,
        "statusChangedOn" : "2017-06-26",
        "goalTrackerStatusCode" : "NotAchieved"
      },
      {
        "id" : 203924,
        "completedObjectives" : 0,
        "goalTrackerStatusKey" : 2,
        "effectiveFrom" : "2017-06-12",
        "goalKey" : 1,
        "totalObjectives" : 1,
        "objectiveTrackers" : [
          {
            "objectiveCode" : "ActiveRewardsFitness",
            "pointsTarget" : 150,
            "effectiveFrom" : "2017-06-12",
            "objectiveKey" : 1,
            "objectiveName" : "Earn Active Rewards Fitness Points",
            "statusName" : "Objective Not Achieved",
            "monitorUntil" : "2017-07-02",
            "pointsAchieved" : 0,
            "effectiveTo" : "2017-06-25",
            "statusCode" : "NotAchieved",
            "percentageCompleted" : 0,
            "statusChangedOn" : "2017-06-12",
            "objectivePointsEntries" : [

            ],
            "statusKey" : 2
          }
        ],
        "monitorUntil" : "2017-07-02",
        "effectiveTo" : "2017-06-25",
        "goalName" : "Active Rewards Goal",
        "goalTrackerStatusName" : "Goal Not Achieved",
        "partyId" : 100002,
        "goalCode" : "ActiveRewards",
        "percentageCompleted" : 0,
        "statusChangedOn" : "2017-06-12",
        "goalTrackerStatusCode" : "NotAchieved"
      },
      {
        "id" : 203923,
        "completedObjectives" : 0,
        "goalTrackerStatusKey" : 2,
        "effectiveFrom" : "2017-05-29",
        "goalKey" : 1,
        "totalObjectives" : 1,
        "objectiveTrackers" : [
          {
            "objectiveCode" : "ActiveRewardsFitness",
            "pointsTarget" : 150,
            "effectiveFrom" : "2017-05-29",
            "objectiveKey" : 1,
            "objectiveName" : "Earn Active Rewards Fitness Points",
            "statusName" : "Objective Not Achieved",
            "monitorUntil" : "2017-06-18",
            "pointsAchieved" : 0,
            "effectiveTo" : "2017-06-11",
            "statusCode" : "NotAchieved",
            "percentageCompleted" : 0,
            "statusChangedOn" : "2017-05-29",
            "objectivePointsEntries" : [

            ],
            "statusKey" : 2
          }
        ],
        "monitorUntil" : "2017-06-18",
        "effectiveTo" : "2017-06-11",
        "goalName" : "Active Rewards Goal",
        "goalTrackerStatusName" : "Goal Not Achieved",
        "partyId" : 100002,
        "goalCode" : "ActiveRewards",
        "percentageCompleted" : 0,
        "statusChangedOn" : "2017-05-29",
        "goalTrackerStatusCode" : "NotAchieved"
      },
      {
        "id" : 203922,
        "completedObjectives" : 0,
        "goalTrackerStatusKey" : 2,
        "effectiveFrom" : "2017-05-15",
        "goalKey" : 1,
        "totalObjectives" : 1,
        "objectiveTrackers" : [
          {
            "objectiveCode" : "ActiveRewardsFitness",
            "pointsTarget" : 150,
            "effectiveFrom" : "2017-05-15",
            "objectiveKey" : 1,
            "objectiveName" : "Earn Active Rewards Fitness Points",
            "statusName" : "Objective Not Achieved",
            "monitorUntil" : "2017-06-04",
            "pointsAchieved" : 0,
            "effectiveTo" : "2017-05-28",
            "statusCode" : "NotAchieved",
            "percentageCompleted" : 0,
            "statusChangedOn" : "2017-05-15",
            "objectivePointsEntries" : [

            ],
            "statusKey" : 2
          }
        ],
        "monitorUntil" : "2017-06-04",
        "effectiveTo" : "2017-05-28",
        "goalName" : "Active Rewards Goal",
        "goalTrackerStatusName" : "Goal Not Achieved",
        "partyId" : 100002,
        "goalCode" : "ActiveRewards",
        "percentageCompleted" : 0,
        "statusChangedOn" : "2017-05-15",
        "goalTrackerStatusCode" : "NotAchieved"
      },
      {
        "id" : 203921,
        "completedObjectives" : 0,
        "goalTrackerStatusKey" : 2,
        "effectiveFrom" : "2017-05-01",
        "goalKey" : 1,
        "totalObjectives" : 1,
        "objectiveTrackers" : [
          {
            "objectiveCode" : "ActiveRewardsFitness",
            "pointsTarget" : 150,
            "effectiveFrom" : "2017-05-01",
            "objectiveKey" : 1,
            "objectiveName" : "Earn Active Rewards Fitness Points",
            "statusName" : "Objective Not Achieved",
            "monitorUntil" : "2017-05-21",
            "pointsAchieved" : 0,
            "effectiveTo" : "2017-05-14",
            "statusCode" : "NotAchieved",
            "percentageCompleted" : 0,
            "statusChangedOn" : "2017-05-01",
            "objectivePointsEntries" : [

            ],
            "statusKey" : 2
          }
        ],
        "monitorUntil" : "2017-05-21",
        "effectiveTo" : "2017-05-14",
        "goalName" : "Active Rewards Goal",
        "goalTrackerStatusName" : "Goal Not Achieved",
        "partyId" : 100002,
        "goalCode" : "ActiveRewards",
        "percentageCompleted" : 0,
        "statusChangedOn" : "2017-05-01",
        "goalTrackerStatusCode" : "NotAchieved"
      },
      {
        "id" : 203920,
        "completedObjectives" : 0,
        "goalTrackerStatusKey" : 2,
        "effectiveFrom" : "2017-04-17",
        "goalKey" : 1,
        "totalObjectives" : 1,
        "objectiveTrackers" : [
          {
            "objectiveCode" : "ActiveRewardsFitness",
            "pointsTarget" : 150,
            "effectiveFrom" : "2017-04-17",
            "objectiveKey" : 1,
            "objectiveName" : "Earn Active Rewards Fitness Points",
            "statusName" : "Objective Not Achieved",
            "monitorUntil" : "2017-05-07",
            "pointsAchieved" : 0,
            "effectiveTo" : "2017-04-30",
            "statusCode" : "NotAchieved",
            "percentageCompleted" : 0,
            "statusChangedOn" : "2017-04-17",
            "objectivePointsEntries" : [

            ],
            "statusKey" : 2
          }
        ],
        "monitorUntil" : "2017-05-07",
        "effectiveTo" : "2017-04-30",
        "goalName" : "Active Rewards Goal",
        "goalTrackerStatusName" : "Goal Not Achieved",
        "partyId" : 100002,
        "goalCode" : "ActiveRewards",
        "percentageCompleted" : 0,
        "statusChangedOn" : "2017-04-17",
        "goalTrackerStatusCode" : "NotAchieved"
      },
      {
        "id" : 203919,
        "completedObjectives" : 0,
        "goalTrackerStatusKey" : 2,
        "effectiveFrom" : "2017-04-03",
        "goalKey" : 1,
        "totalObjectives" : 1,
        "objectiveTrackers" : [
          {
            "objectiveCode" : "ActiveRewardsFitness",
            "pointsTarget" : 150,
            "effectiveFrom" : "2017-04-03",
            "objectiveKey" : 1,
            "objectiveName" : "Earn Active Rewards Fitness Points",
            "statusName" : "Objective Not Achieved",
            "monitorUntil" : "2017-04-23",
            "pointsAchieved" : 0,
            "effectiveTo" : "2017-04-16",
            "statusCode" : "NotAchieved",
            "percentageCompleted" : 0,
            "statusChangedOn" : "2017-04-03",
            "objectivePointsEntries" : [

            ],
            "statusKey" : 2
          }
        ],
        "monitorUntil" : "2017-04-23",
        "effectiveTo" : "2017-04-16",
        "goalName" : "Active Rewards Goal",
        "goalTrackerStatusName" : "Goal Not Achieved",
        "partyId" : 100002,
        "goalCode" : "ActiveRewards",
        "percentageCompleted" : 0,
        "statusChangedOn" : "2017-04-03",
        "goalTrackerStatusCode" : "NotAchieved"
      },
      {
        "id" : 203918,
        "completedObjectives" : 0,
        "goalTrackerStatusKey" : 2,
        "effectiveFrom" : "2017-03-20",
        "goalKey" : 1,
        "totalObjectives" : 1,
        "objectiveTrackers" : [
          {
            "objectiveCode" : "ActiveRewardsFitness",
            "pointsTarget" : 150,
            "effectiveFrom" : "2017-03-20",
            "objectiveKey" : 1,
            "objectiveName" : "Earn Active Rewards Fitness Points",
            "statusName" : "Objective Not Achieved",
            "monitorUntil" : "2017-04-09",
            "pointsAchieved" : 0,
            "effectiveTo" : "2017-04-02",
            "statusCode" : "NotAchieved",
            "percentageCompleted" : 0,
            "statusChangedOn" : "2017-03-20",
            "objectivePointsEntries" : [

            ],
            "statusKey" : 2
          }
        ],
        "monitorUntil" : "2017-04-09",
        "effectiveTo" : "2017-04-02",
        "goalName" : "Active Rewards Goal",
        "goalTrackerStatusName" : "Goal Not Achieved",
        "partyId" : 100002,
        "goalCode" : "ActiveRewards",
        "percentageCompleted" : 0,
        "statusChangedOn" : "2017-03-20",
        "goalTrackerStatusCode" : "NotAchieved"
      }
    ]
  }
}
